{
  "type": "minecraft:crafting_shapeless",
  "group": "planks",
  "ingredients": [
    {
      "tag": "terrestria:willow_logs"
    }
  ],
  "result": {
    "item": "minecraft:air",
    "count": 4
  }
}
